<?xml version="1.0" encoding="UTF-8"?>
<svg width="43.682mm" height="50.919mm" version="1.1" viewBox="0 0 43.682 50.919" xmlns="http://www.w3.org/2000/svg">
 <g transform="translate(-140.11 -117.89)">
  <g transform="translate(-1115.8 10.815)">
   <g transform="translate(589.22 -217.2)">
    <path d="m674.21 325.21 6.9039 14.043-7.6627 13.273 14.319-7.7044 10.946 4.8948z" fill="#0058c7" style="paint-order:stroke markers fill"/>
    <path d="m702.83 351.58-6.9039-14.043 7.6627-13.273-14.319 7.7044-10.946-4.8948z" fill="#1f83ff" style="paint-order:stroke markers fill"/>
   </g>
   <g fill="#262626" stroke-width=".43012" style="font-variant-caps:normal;font-variant-east-asian:normal;font-variant-ligatures:normal;font-variant-numeric:normal" aria-label="xylia">
    <path d="m1266.6 153.6-3.7507-5.0927 3.4238-4.6798h-3.2002l-1.8237 3.0281-1.8237-3.0281h-3.2346l3.4238 4.7314-3.6818 5.0411h3.2173l2.099-3.2518 2.099 3.2518z" style="font-variant-caps:normal;font-variant-east-asian:normal;font-variant-ligatures:normal;font-variant-numeric:normal"/>
    <path d="m1274.4 143.83-2.1678 6.8992-2.2711-6.8992h-3.0452l4.0603 10.495c-0.5849 0.99789-1.3419 1.428-2.357 1.428-0.4474 0-1.0151-0.10323-1.6689-0.30969l-0.1893 2.185c0.6194 0.24087 1.5141 0.3613 2.2023 0.3613 1.9269 0 3.4754-0.80863 4.284-3.1141l4.1464-11.046z" style="font-variant-caps:normal;font-variant-east-asian:normal;font-variant-ligatures:normal;font-variant-numeric:normal"/>
    <path d="m1278.9 153.6h2.9937v-13.764h-2.9937z" style="font-variant-caps:normal;font-variant-east-asian:normal;font-variant-ligatures:normal;font-variant-numeric:normal"/>
    <path d="m1286.2 142.52c0.9463 0 1.7205-0.77423 1.7205-1.7205 0-0.94628-0.7742-1.7205-1.7205-1.7205s-1.7205 0.77422-1.7205 1.7205c0 0.94627 0.7742 1.7205 1.7205 1.7205zm-1.4968 11.08h2.9937v-9.7724h-2.9937z" style="font-variant-caps:normal;font-variant-east-asian:normal;font-variant-ligatures:normal;font-variant-numeric:normal"/>
    <path d="m1299.5 151.47c-0.2581 0.0688-0.4473 0.086-0.6538 0.086-0.4645 0-0.6538-0.20646-0.6538-0.7054v-3.269c0-3.0453-1.3936-3.9572-3.4238-3.9572-1.9442 0-3.5614 0.63658-4.955 1.428l0.5677 2.0646c1.428-0.94627 2.4603-1.3076 3.3722-1.3076 0.8947 0 1.4452 0.46454 1.4452 1.5829v0.0688l-0.5161 0.15485c-3.1141 0.89466-4.9379 1.428-4.9379 3.7163 0 1.3248 1.1012 2.4087 2.7012 2.4087 1.2044 0 2.1335-0.43013 3.0281-1.0839 0.4129 0.84305 1.256 1.0839 2.2539 1.0667 0.7398-0.0172 1.2387-0.086 1.8581-0.22366zm-6.7788-0.53336c0-0.7054 0.4818-1.0839 2.2023-1.7033l0.258-0.086v1.8237c-0.6021 0.37851-1.1527 0.61938-1.7033 0.61938-0.5333 0-0.757-0.20646-0.757-0.65379z" style="font-variant-caps:normal;font-variant-east-asian:normal;font-variant-ligatures:normal;font-variant-numeric:normal"/>
   </g>
  </g>
 </g>
</svg>
